[
    {
        "recipeId": 1,
        "title": "Tomato Cucumber Avocado Salad",
        "image_name": "tomato-cucumber-avocado-salad.jpg",
        "instructions": "Add cherry tomatoes, cucumber, avocado, red onion and garlic in a medium salad bowl.\r\n\r\nSprinkle minced parsley. Pour olive oil over salad, and season with salt and pepper.\r\n\r\nNote: Add avocado right before serving if you are planning to refrigerate the salad.",
        "servings": 4,
        "ingredients": [
            {
                "display_index": 0,
                "name": "cherry tomatoes",
                "department": "Produce",
                "quantity": 237,
                "unit": "ml"
            },
            {
                "display_index": 1,
                "name": "cucumber",
                "department": "Produce",
                "quantity": 237,
                "unit": "ml"
            },
            {
                "display_index": 2,
                "name": "avocado",
                "department": "Produce",
                "quantity": 1,
                "unit": ""
            },
            {
                "display_index": 3,
                "name": "red onion",
                "department": "Produce",
                "quantity": 118,
                "unit": "ml"
            },
            {
                "display_index": 4,
                "name": "garlic",
                "department": "Produce",
                "quantity": 2,
                "unit": "cloves"
            },
            {
                "display_index": 5,
                "name": "parsley",
                "department": "Produce",
                "quantity": 15,
                "unit": "ml"
            },
            {
                "display_index": 6,
                "name": "olive oil",
                "department": "Condiments",
                "quantity": 15,
                "unit": "ml"
            },
            {
                "display_index": 7,
                "name": "salt and freshly ground black pepper",
                "department": "Spices",
                "quantity": 0,
                "unit": ""
            }
        ]
    },
    {
        "recipeId": 2,
        "title": "Crab And Apple Coleslaw",
        "image_name": "crab-and-apple-coleslaw.jpg",
        "instructions": "In a large bowl, combine mayonnaise, vinegar, sugar, cream, lemon,  salt, and pepper. Add cabbage, carrot, bell pepper, green apple and  toss. Next, add half of the crab meat and toss gently. Place portion  on plate, and top with remaining crab. Garnish with apple slices.",
        "servings": 2,
        "ingredients": [
            {
                "display_index": 0,
                "name": "rice vinegar",
                "department": "Asian",
                "quantity": 15,
                "unit": "ml"
            },
            {
                "display_index": 1,
                "name": "heavy cream",
                "department": "Dairy",
                "quantity": 30,
                "unit": "ml"
            },
            {
                "display_index": 2,
                "name": "sugar",
                "department": "Baking",
                "quantity": 15,
                "unit": "ml"
            },
            {
                "display_index": 3,
                "name": "green apple",
                "department": "Produce",
                "quantity": 1,
                "unit": ""
            },
            {
                "display_index": 4,
                "name": "salt and pepper",
                "department": "Spices",
                "quantity": 0,
                "unit": ""
            },
            {
                "display_index": 5,
                "name": "head green cabbage",
                "department": "Produce",
                "quantity": 0.5,
                "unit": ""
            },
            {
                "display_index": 6,
                "name": "cooked crab meat",
                "department": "Canned Meat and Fish",
                "quantity": 0.226796185,
                "unit": "kg"
            },
            {
                "display_index": 7,
                "name": "lemon",
                "department": "Produce",
                "quantity": 0,
                "unit": ""
            },
            {
                "display_index": 8,
                "name": "carrot",
                "department": "Produce",
                "quantity": 79,
                "unit": "ml"
            },
            {
                "display_index": 9,
                "name": "red apple",
                "department": "Produce",
                "quantity": 0.5,
                "unit": ""
            },
            {
                "display_index": 10,
                "name": "red bell pepper",
                "department": "Produce",
                "quantity": 79,
                "unit": "ml"
            },
            {
                "display_index": 11,
                "name": "mayonnaise",
                "department": "Condiments",
                "quantity": 158,
                "unit": "ml"
            }
        ]
    },
    {
        "recipeId": 3,
        "title": "Maple Soy Grilled Salmon Steaks",
        "image_name": "maple-soy-grilled-salmon-steak.jpg",
        "instructions": "In a shallow dish or a baking dish whisk together the soy sauce, maple syrup, sesame oil, ginger, garlic and the pepper flakes. Add salmon to the dish and turn it around to get the glaze all over. Cover with plastic wrap and let marinate for at least an hour.\r\n\r\nGrill the salmon on both sides, until salmon is cooked through or to your liking. I left mine about 4 minutes per side. As you're grilling the salmon, brush with remaining glaze on each side.\r\n\r\nServe garnished with some green onions and sesame seeds, with a side of vegetables or salad.",
        "servings": 4,
        "ingredients": [
            {
                "display_index": 0,
                "name": "salmon steaks",
                "department": "Meats",
                "quantity": 4,
                "unit": ""
            },
            {
                "display_index": 1,
                "name": "soy sauce",
                "department": "Asian",
                "quantity": 59,
                "unit": "ml"
            },
            {
                "display_index": 2,
                "name": "maple syrup",
                "department": "Baking",
                "quantity": 59,
                "unit": "ml"
            },
            {
                "display_index": 3,
                "name": "sesame oil",
                "department": "Condiments",
                "quantity": 15,
                "unit": "ml"
            },
            {
                "display_index": 4,
                "name": "ginger",
                "department": "Produce",
                "quantity": 4.9289215832170585,
                "unit": "ml"
            },
            {
                "display_index": 5,
                "name": "garlic",
                "department": "Produce",
                "quantity": 3,
                "unit": "cloves"
            },
            {
                "display_index": 6,
                "name": "crushed red chili pepper flakes",
                "department": "Spices",
                "quantity": 2.4644607916085293,
                "unit": "ml"
            },
            {
                "display_index": 7,
                "name": "sesame seeds",
                "department": "Condiments",
                "quantity": 0,
                "unit": ""
            },
            {
                "display_index": 8,
                "name": "chopped green onions",
                "department": "Produce",
                "quantity": 0,
                "unit": ""
            }
        ]
    },
    {
        "recipeId": 4,
        "title": "Spicy Garlic Rosemary Shrimp & Pasta",
        "image_name": "spicy-garlic-rosemary-shrimp-pasta.jpg",
        "instructions": "Boil pasta per package directions to al dente. While it is cooking, prepare shrimp.\r\n\r\nHeat a large skillet over moderate heat, then add olive oil and garlic and cook briefly, until golden. Add shrimp, then sprinkle with rosemary and pepper flakes. Cook, stirring, until just cooked through, about 3 minutes. Remove from heat. Season with salt and pepper to taste.\r\n\r\nWhen pasta is ready, drain and immediately spray lightly but evenly with olive oil cooking spray, tossing to coat. Portion into dishes and top with shrimp. Squeeze lemon juice over top and serve. ",
        "servings": 3,
        "ingredients": [
            {
                "display_index": 0,
                "name": "pasta",
                "department": "Pasta",
                "quantity": 0.226796185,
                "unit": "kg"
            },
            {
                "display_index": 1,
                "name": "shrimp",
                "department": "Seafood",
                "quantity": 0.45359237,
                "unit": "kg"
            },
            {
                "display_index": 2,
                "name": "garlic infused olive oil (or regular olive oil)",
                "department": "Condiments",
                "quantity": 15,
                "unit": "ml"
            },
            {
                "display_index": 3,
                "name": "olive oil cooking spray",
                "department": "Condiments",
                "quantity": 1,
                "unit": ""
            },
            {
                "display_index": 4,
                "name": "garlic",
                "department": "Produce",
                "quantity": 2,
                "unit": "cloves"
            },
            {
                "display_index": 5,
                "name": "fresh rosemary",
                "department": "Produce",
                "quantity": 15,
                "unit": "ml"
            },
            {
                "display_index": 6,
                "name": "red pepper flakes",
                "department": "Spices",
                "quantity": 2.46446079160853,
                "unit": "ml"
            },
            {
                "display_index": 7,
                "name": "salt and pepper",
                "department": "Spices",
                "quantity": 0,
                "unit": ""
            },
            {
                "display_index": 8,
                "name": "lemon",
                "department": "Produce",
                "quantity": 1,
                "unit": ""
            }
        ]
    },
    {
        "recipeId": 5,
        "title": "Butter and Herb Poached Shrimp",
        "image_name": "butter-and-herb-poached-shrimp.jpg",
        "instructions": "In a sauce pan on Medium heat add water and butter. Allow the butter to completely melt (about 2 minutes). Add Basil, Cayenne Pepper, Salt, Pepper, Paprika and Garlic Powder. Cook on Medium heat for about 2-3 minutes stirring slowly so that the butter is infused with the flavors. Lower the heat to Low.\r\n\r\nAdd Shrimp and stir slowly until shrimp turns a nice coral color and the tails curl. \r\n\r\n(3 Minutes with Extra Large Shrimp max 4-5 Minutes)\r\n\r\nBe careful not to over cook the shrimp or it will become rubbery. ",
        "servings": 2,
        "ingredients": [
            {
                "display_index": 0,
                "name": "shrimp",
                "department": "Seafood",
                "quantity": 300,
                "unit": "g"
            },
            {
                "display_index": 1,
                "name": "water",
                "department": "Beverages",
                "quantity": 118,
                "unit": "ml"
            },
            {
                "display_index": 2,
                "name": "butter",
                "department": "Dairy",
                "quantity": 44,
                "unit": "ml"
            },
            {
                "display_index": 3,
                "name": "basil",
                "department": "Produce",
                "quantity": 44,
                "unit": "ml"
            },
            {
                "display_index": 4,
                "name": "cayenne pepper",
                "department": "Spices",
                "quantity": 2.46446079160853,
                "unit": "ml"
            },
            {
                "display_index": 5,
                "name": "paprika",
                "department": "Spices",
                "quantity": 2.46446079160853,
                "unit": "ml"
            },
            {
                "display_index": 6,
                "name": "garlic Powder ",
                "department": "Spices",
                "quantity": 2.46446079160853,
                "unit": "ml"
            },
            {
                "display_index": 7,
                "name": "salt and pepper",
                "department": "Spices",
                "quantity": 0,
                "unit": ""
            }
        ]
    },
    {
        "recipeId": 6,
        "title": "Baked Angel Hair Pasta with Sausage and Smooth Tomato and Artichoke Sauce",
        "image_name": "baked-angel-hair-pasta-with-sausage.jpg",
        "instructions": "Preheat oven to 350F.  Lightly oil a 12x9x2 inch baking dish.  Place sausages in the dish.  Stick bay leaves between sausages.  Place the dish in the oven until the sausages are fully cooked, about 30 minutes.\r\n\r\nRemove the sausages from the casserole and set aside.\r\n\r\nIn a skillet, heat oil over medium heat.  Add onion, celery, parsley and garlic, and cook, stirring frequently, until softened, about 6 minutes.  Add tomatoes, bell pepper and artichoke hearts. Season to taste with salt and pepper. Reduce the heat to low, cover and cook, stirring occasionally, until denser, about 50 minutes.  Pass the sauce through a strainer and set aside.\r\n\r\nBring a large pot of salted water to a vigorous boil. Add pasta and boil until half cooked, about 1 1/2 minutes.  Drain and toss the pasta with the sauce. \r\n\r\nArrange the pasta in the empty dish that the sausages were cooked and then place the sausages in rows on the top. Bake until the top of the pasta begins to get a little crunchy, 20 to 25 minutes. Sprinkle Parmesan liberally over the dash answer. Makes 4 to 6 servings.",
        "servings": 6,
        "ingredients": [
            {
                "display_index": 0,
                "name": "mild italian sausages",
                "department": "Meats",
                "quantity": 8,
                "unit": ""
            },
            {
                "display_index": 1,
                "name": "bay leaves",
                "department": "Produce",
                "quantity": 4,
                "unit": ""
            },
            {
                "display_index": 2,
                "name": "extra virgin olive oil",
                "department": "Condiments",
                "quantity": 118,
                "unit": "ml"
            },
            {
                "display_index": 3,
                "name": "onion",
                "department": "Produce",
                "quantity": 1,
                "unit": ""
            },
            {
                "display_index": 4,
                "name": "celery",
                "department": "Produce",
                "quantity": 1,
                "unit": ""
            },
            {
                "display_index": 5,
                "name": "fresh parsley",
                "department": "Produce",
                "quantity": 59,
                "unit": "ml"
            },
            {
                "display_index": 6,
                "name": "garlic",
                "department": "Produce",
                "quantity": 3,
                "unit": "cloves"
            },
            {
                "display_index": 7,
                "name": "ripe tomatoes",
                "department": "Produce",
                "quantity": 3,
                "unit": ""
            },
            {
                "display_index": 8,
                "name": "red bell pepper",
                "department": "Produce",
                "quantity": 0.5,
                "unit": ""
            },
            {
                "display_index": 9,
                "name": "artichoke hearts",
                "department": "Produce",
                "quantity": 5,
                "unit": ""
            },
            {
                "display_index": 10,
                "name": "salt and pepper",
                "department": "Spices",
                "quantity": 0,
                "unit": ""
            },
            {
                "display_index": 11,
                "name": "angel hair",
                "department": "Pasta",
                "quantity": 0.45359237,
                "unit": "kg"
            },
            {
                "display_index": 12,
                "name": "grated parmesan",
                "department": "Cheeses",
                "quantity": 100,
                "unit": "ml"
            }
        ]
    },
    {
        "recipeId": 7,
        "title": "Angel Hair Pasta with Lemon and Garlic",
        "image_name": "angelhairpastawithlemonandgarl.jpg",
        "instructions": "Bring a large pot of water to a boil over high heat and maintain at a boil.  Put the olive oil and garlic in a saute pan and cook over medium heat just  until the garlic begins to brown. Remove the saute pan from the heat and  pour in the wine. Return it to the heat. Cook for another 1 to 2 minutes,  until the wine has been reduced by half. Stir in the lemon juice and  tomato.  Remove the pan from the heat. Place the pasta in the boiling water  and cook to desired doneness, 30 seconds to 1 minute. Drain the pasta and  put it into a warm serving bowl. Add the basil, Parmesan cheese, and black  pepper, along with the tomato mixture.  Toss and serve immediately.    ",
        "servings": 4,
        "ingredients": [
            {
                "display_index": 0,
                "name": "olive oil",
                "department": "Condiments",
                "quantity": 4.92892158321706,
                "unit": "ml"
            },
            {
                "display_index": 1,
                "name": "garlic",
                "department": "Produce",
                "quantity": 2,
                "unit": "cloves"
            },
            {
                "display_index": 2,
                "name": "dry white wine",
                "department": "Beverages",
                "quantity": 118,
                "unit": "ml"
            },
            {
                "display_index": 3,
                "name": "lemon juice",
                "department": "Produce",
                "quantity": 59,
                "unit": "ml"
            },
            {
                "display_index": 4,
                "name": "chopped tomato",
                "department": "Beverages",
                "quantity": 237,
                "unit": "ml"
            },
            {
                "display_index": 5,
                "name": "angel hair",
                "department": "Pasta",
                "quantity": 226,
                "unit": "g"
            },
            {
                "display_index": 6,
                "name": "chopped fresh basil",
                "department": "Produce",
                "quantity": 59,
                "unit": "ml"
            },
            {
                "display_index": 7,
                "name": "grated parmesan",
                "department": "Cheeses",
                "quantity": 30,
                "unit": "ml"
            },
            {
                "display_index": 8,
                "name": "ground black pepper",
                "department": "Spices",
                "quantity": 0,
                "unit": ""
            }
        ]
    },
    {
        "recipeId": 8,
        "title": "Summer Tomato and Crab Salad",
        "image_name": "summer-tomato-and-crab-salad.jpg",
        "instructions": "Put tomatoes, crab, chives, lemon juice, zest, salt and pepper into a large bowl and toss gently to combine; set aside. Stir together sour cream, dill, mustard, salt and pepper in a small bowl.\r\n\r\nSpoon tomato and crab salad onto plates and serve with dollops of the dill sour cream on the side.",
        "servings": 6,
        "ingredients": [
            {
                "display_index": 0,
                "name": "ripe heirloom tomatoes",
                "department": "Produce",
                "quantity": 1.133980925,
                "unit": "kg"
            },
            {
                "display_index": 1,
                "name": "cooked crab meat",
                "department": "Canned Meat and Fish",
                "quantity": 0.45359237,
                "unit": "kg"
            },
            {
                "display_index": 2,
                "name": "chopped chives",
                "department": "Produce",
                "quantity": 59,
                "unit": "ml"
            },
            {
                "display_index": 3,
                "name": "lemon juice",
                "department": "Produce",
                "quantity": 59,
                "unit": "ml"
            },
            {
                "display_index": 4,
                "name": "lemon zest",
                "department": "Produce",
                "quantity": 4.92892158321706,
                "unit": "ml"
            },
            {
                "display_index": 5,
                "name": "salt and white pepper",
                "department": "Spices",
                "quantity": 0,
                "unit": ""
            },
            {
                "display_index": 6,
                "name": "low fat or regular sour cream",
                "department": "Dairy",
                "quantity": 177,
                "unit": "ml"
            },
            {
                "display_index": 7,
                "name": "chopped dill",
                "department": "Produce",
                "quantity": 30,
                "unit": "ml"
            },
            {
                "display_index": 8,
                "name": "Dijon mustard",
                "department": "Condiments",
                "quantity": 15,
                "unit": "ml"
            }
        ]
    },
    {
        "recipeId": 9,
        "title": "Salmon on the Grill with Lemon Butter",
        "image_name": "salmon-on-the-grill-with-lemon-butt.jpg",
        "instructions": "Brush fish lightly with oil. In bowl combine remaining ingredients.  Place salmon on well-oiled, hinged grill. Baste salmon with lemon butter mixture & cook 5 minutes, then turn & continue cooking 5 minutes. Baste with lemon butter several times during cooking.",
        "servings": 8,
        "ingredients": [
            {
                "display_index": 0,
                "name": "salmon steaks",
                "department": "Meats",
                "quantity": 8,
                "unit": ""
            },
            {
                "display_index": 1,
                "name": "olive oil",
                "department": "Condiments",
                "quantity": 0,
                "unit": ""
            },
            {
                "display_index": 2,
                "name": "butter",
                "department": "Dairy",
                "quantity": 59,
                "unit": "ml"
            },
            {
                "display_index": 3,
                "name": "lemon juice",
                "department": "Produce",
                "quantity": 30,
                "unit": "ml"
            },
            {
                "display_index": 4,
                "name": "chopped parsley",
                "department": "Produce",
                "quantity": 30,
                "unit": "ml"
            },
            {
                "display_index": 5,
                "name": "rosemary",
                "department": "Produce",
                "quantity": 1.23223039580426,
                "unit": "ml"
            },
            {
                "display_index": 6,
                "name": "marjoram",
                "department": "Produce",
                "quantity": 0,
                "unit": ""
            },
            {
                "display_index": 7,
                "name": "salt",
                "department": "Baking",
                "quantity": 0,
                "unit": "ml"
            },
            {
                "display_index": 8,
                "name": "coarsely ground pepper",
                "department": "Spices",
                "quantity": 0.616115197902132,
                "unit": "ml"
            }
        ]
    },
    {
        "recipeId": 10,
        "title": "Zucchini Noodles With Lemon-Garlic Spicy Shrimp",
        "image_name": "zucchini-noodles-with-lemon-garlic.jpg",
        "instructions": "Heat a medium nonstick skillet over medium-high heat. Add 1 teaspoon of the oil and crush red pepper flakes, add the shrimp and season with pinch salt and pepper; cook 2 to 3 minutes. Add half of the garlic and continue cooking 1 more minute, or until the shrimp is cooked through and opaque. Set aside on a dish.\r\n\r\nAdd the remaining 1/2 teaspoon oil and garlic to the pan, cook 30 seconds then add the zucchini noodles and cook 1 1/2 minutes. Add the shrimp and tomatoes to the pan and squeeze the lemon over the dish. Remove from heat and serve.\r\n",
        "servings": 1,
        "ingredients": [
            {
                "display_index": 0,
                "name": "olive oil",
                "department": "Condiments",
                "quantity": 15,
                "unit": "ml"
            },
            {
                "display_index": 1,
                "name": "red pepper flakes",
                "department": "Spices",
                "quantity": 0,
                "unit": ""
            },
            {
                "display_index": 2,
                "name": "shrimp",
                "department": "Seafood",
                "quantity": 120,
                "unit": "g"
            },
            {
                "display_index": 3,
                "name": "garlic",
                "department": "Produce",
                "quantity": 2,
                "unit": "cloves"
            },
            {
                "display_index": 4,
                "name": "medium zucchini",
                "department": "Produce",
                "quantity": 1,
                "unit": ""
            },
            {
                "display_index": 5,
                "name": "salt and pepper",
                "department": "Spices",
                "quantity": 0,
                "unit": ""
            },
            {
                "display_index": 6,
                "name": "fresh lemon",
                "department": "Produce",
                "quantity": 0.25,
                "unit": ""
            },
            {
                "display_index": 7,
                "name": "cherry tomatoes",
                "department": "Produce",
                "quantity": 59,
                "unit": "ml"
            }
        ]
    }
]
